Utano Market Survey Report
…
eThekwini Metropolitan Municipality
4
1.3%

uMzinyathi District
1
0.3%

NA
4
1.3%

# A tibble: 35 × 4
# Groups:   nationality_recode [5]
   nationality_recode Current location where respondent live…¹ Frequency Percent
   <chr>              <chr>                                        <int> <chr>  
 1 Lesotho            City of Johannesburg Metropolitan Munic…         6 23.1%  
 2 Lesotho            City of Tshwane Metropolitan Municipali…        15 57.7%  
 3 Lesotho            Sedibeng District                                4 15.4%  
 4 Lesotho            West Rand District                               1 3.8%   
 5 Malawi             City of Johannesburg Metropolitan Munic…         2 9.1%   
 6 Malawi             City of Tshwane Metropolitan Municipali…        20 90.9%  
 7 Mozambique         Capetown                                        17 21.2%  
 8 Mozambique         Central Karoo District                           2 2.5%   
 9 Mozambique         Chris Hani District                             12 15%    
10 Mozambique         City of Johannesburg Metropolitan Munic…         2 2.5%   
# ℹ 25 more rows
# ℹ abbreviated name: ¹​`Current location where respondent lives`
…
